…
head(df)
```

Let's go back to Germany again

``` r
#which parties had the biggest share of votes? 
df %>%
  filter(country_name == 'Germany')%>%
  group_by(party_name_english, election_date)%>%
  arrange(desc(vote_share))
```

    ## # A tibble: 183 x 8
    ## # Groups:   party_name_english, election_date [183]
    ##    vote_share seats_total                 party_name_english left_right
    ##         <dbl>       <dbl>                              <chr>      <dbl>
    ##  1       45.8         496 Social Democratic Party of Germany     3.6451
    ##  2       42.9         497 Social Democratic Party of Germany     3.6451
    ##  3       42.7         496 Social Democratic Party of Germany     3.6451
    ##  4       42.6         496 Social Democratic Party of Germany     3.6451
    ##  5       40.9         669 Social Democratic Party of Germany     3.6451
    ##  6       40.8          81 Social Democratic Party of Germany     3.6451
    ##  7       39.7         497         Christian Democratic Union     6.2503
    ##  8       39.3         496 Social Democratic Party of Germany     3.6451
    ##  9       39.3          99         Christian Democratic Union     6.2503
    ## 10       39.1          81         Christian Democratic Union     6.2503
    ## # ... with 173 more rows, and 4 more variables: country_name <fctr>,
    ## #   election_date <date>, seats <dbl>, party_name <fctr>
…
Don't mind the terrible formatting of dates, and beware that the x-axis is freely moving depending on the available election dates for each country. A couple things jump out, first Portugal seems way more leftist than most EU countries. The UK also seems to have dabbled with that as well. Poland, on the other hand, seems to have steadily become more conservative. Let's try to quantify the stability of political opinion by finding the standard deviation of political left/right rating for these countries.

``` r
df %>%
  filter(country_name %in% eu_country)%>%
  group_by(country_name)%>%
  summarize(avg_pol = mean(left_right, na.rm=TRUE),
            sd_pol = sd(left_right, na.rm=TRUE))%>%
  arrange(desc(sd_pol))
```

    ## # A tibble: 29 x 3
    ##    country_name  avg_pol   sd_pol
    ##          <fctr>    <dbl>    <dbl>
    ##  1      Hungary 5.111330 2.809641
    ##  2       France 4.988990 2.808328
    ##  3       Cyprus 5.323077 2.751259
    ##  4   Luxembourg 4.740220 2.618672
    ##  5  Switzerland 4.820141 2.616909
    ##  6      Croatia 5.623034 2.599324
    ##  7      Austria 4.994259 2.577238
    ##  8       Greece 4.807284 2.569428
    ##  9  Netherlands 5.307811 2.537512
    ## 10      Germany 5.714425 2.477178
    ## # ... with 19 more rows
…
``` r
df %>%
  filter(country_name %in% eu_country)%>%
  group_by(country_name)%>%
  summarize(max_pol = max(left_right),
            min_pol = min(left_right))%>%
  arrange(desc(max_pol))
```

    ## # A tibble: 29 x 3
    ##      country_name max_pol min_pol
    ##            <fctr>   <dbl>   <dbl>
    ##  1        Germany  9.8246  0.9570
    ##  2         France  9.8000  0.0000
    ##  3      Lithuania  9.8000  1.2000
    ##  4          Spain  9.8000  0.5909
    ##  5 Czech Republic  9.7778  0.7498
    ##  6         Poland  9.7368  1.2000
    ##  7        Belgium  9.6622  1.2000
    ##  8        Hungary  9.6065  0.6316
    ##  9          Italy  9.5762  0.5000
    ## 10    Switzerland  9.4247  0.5263
    ## # ... with 19 more rows
…
